…
This is the equivalent of saying “head(gapminder).” So far, that doesn’t seem a lot easier… but wait a bit and you’ll see the beauty of the pipe.

select()

We talked about using filter() to subset data by rows. We can use select() to do the same thing for columns:

> select(gapminder, year, lifeExp)
# A tibble: 1,704 × 2
    year lifeExp
   <int>   <dbl>
1   1952  28.801
2   1957  30.332
3   1962  31.997
4   1967  34.020
5   1972  36.088
6   1977  38.438
7   1982  39.854
8   1987  40.822
9   1992  41.674
10  1997  41.763
# ... with 1,694 more rows
…
mutate() is a function that defines a new variable and inserts it into your tibble. For example, gapminder has GDP per capita and population; if we multiply these we get the GDP.

new_gap %>%
  mutate(gdp = pop * gdpPercap)

Note that the above code creates the new field and displays the resulting tibble; we would have had to use the “<-” operator to save the new field in our tibble.

arrange()

arrange() reorders the rows in a data frame. The gapminder data is currently arranged by country, and then by year. But what if we wanted to look at it by year, and then by country?

new_gap %>%
  arrange(year, country)

# A tibble: 1,704 × 6
       country continent  year lifeExp      pop  gdpPercap
        <fctr>    <fctr> <int>   <dbl>    <int>      <dbl>
1  Afghanistan      Asia  1952  28.801  8425333   779.4453
2      Albania    Europe  1952  55.230  1282697  1601.0561
3      Algeria    Africa  1952  43.077  9279525  2449.0082
4       Angola    Africa  1952  30.015  4232095  3520.6103
5    Argentina  Americas  1952  62.485 17876956  5911.3151
6    Australia   Oceania  1952  69.120  8691212 10039.5956
7      Austria    Europe  1952  66.800  6927772  6137.0765
8      Bahrain      Asia  1952  50.939   120447  9867.0848
9   Bangladesh      Asia  1952  37.484 46886859   684.2442
10     Belgium    Europe  1952  68.000  8730405  8343.1051
# ... with 1,694 more rows
…
