…
The first time you do this, you will probably get an error message.

> library(tidyverse)
Error in library(tidyverse) : there is no package called ‘tidyverse’

In that case, you need to install tidyverse:

install.packages('tidyverse')

You only need to do this installation once, but when you start a new R session you will need to reload the package with the library() command.

Tibbles are one of the unifying features of the tidyverse, but most other R packages produce data frames. You can use the “as_tibble()” command to convert a data frame to a tibble:

> as_tibble(iris)
# A tibble: 150 × 5
   Sepal.Length Sepal.Width Petal.Length Petal.Width Species

1           5.1         3.5          1.4         0.2  setosa
2           4.9         3.0          1.4         0.2  setosa
3           4.7         3.2          1.3         0.2  setosa
4           4.6         3.1          1.5         0.2  setosa
5           5.0         3.6          1.4         0.2  setosa
6           5.4         3.9          1.7         0.4  setosa
7           4.6         3.4          1.4         0.3  setosa
8           5.0         3.4          1.5         0.2  setosa
9           4.4         2.9          1.4         0.2  setosa
10          4.9         3.1          1.5         0.1  setosa
# ... with 140 more rows

There are some things that happen when you load a normal data frame that don’t happen when you load a tibble. On the plus side, tibble() doesn’t change the structure of your data. The data.frame() command will convert character strings to factors, unless you remember to tell it not to do that. Tibble won’t create row names. Tibble also won’t change the names of you variables.

This last feature can seem like a bug if you aren’t expecting it. One very common way to get data into R is to import it from a CSV file. CSV files are often created from Excel spreadsheets, and the column headings on Excel spreadsheets often don’t conform to the R standards for variable names. Since tibble doesn’t change variable names, you can end up with column names that are not proper R variable names. For example, they might include spaces or not start with a letter. To refer to these names, you’ll need to enclose them in backticks. For example:

`Feb Data` #contains space

Tibbles have a nice print method that, by default, shows only the first ten rows of data, and the number of columns that will fit on a screen. This keeps you from flooding your console with data.

> irises  irises
# A tibble: 150 × 5
   Sepal.Length Sepal.Width Petal.Length Petal.Width Species

1           5.1         3.5          1.4         0.2  setosa
2           4.9         3.0          1.4         0.2  setosa
3           4.7         3.2          1.3         0.2  setosa
4           4.6         3.1          1.5         0.2  setosa
5           5.0         3.6          1.4         0.2  setosa
6           5.4         3.9          1.7         0.4  setosa
7           4.6         3.4          1.4         0.3  setosa
8           5.0         3.4          1.5         0.2  setosa
9           4.4         2.9          1.4         0.2  setosa
10          4.9         3.1          1.5         0.1  setosa
# ... with 140 more rows
…
